Data Transformation With dplyr
…
1 nycflights13 data

Available from the nycflights13 package.

336,776 flights that departed from New York City in 2013:

R
Python
Julia

library("nycflights13")
flights

# A tibble: 336,776 × 19
    year month   day dep_time sched_de…¹ dep_d…² arr_t…³ sched…⁴ arr_d…⁵ carrier
   <int> <int> <int>    <int>      <int>   <dbl>   <int>   <int>   <dbl> <chr>  
 1  2013     1     1      517        515       2     830     819      11 UA     
 2  2013     1     1      533        529       4     850     830      20 UA     
 3  2013     1     1      542        540       2     923     850      33 AA     
 4  2013     1     1      544        545      -1    1004    1022     -18 B6     
 5  2013     1     1      554        600      -6     812     837     -25 DL     
 6  2013     1     1      554        558      -4     740     728      12 UA     
 7  2013     1     1      555        600      -5     913     854      19 B6     
 8  2013     1     1      557        600      -3     709     723     -14 EV     
 9  2013     1     1      557        600      -3     838     846      -8 B6     
10  2013     1     1      558        600      -2     753     745       8 AA     
# … with 336,766 more rows, 9 more variables: flight <int>, tailnum <chr>,
#   origin <chr>, dest <chr>, air_time <dbl>, distance <dbl>, hour <dbl>,
#   minute <dbl>, time_hour <dttm>, and abbreviated variable names
#   ¹​sched_dep_time, ²​dep_delay, ³​arr_time, ⁴​sched_arr_time, ⁵​arr_delay
…
flights['time_hour'] = pd.to_datetime(flights['time_hour'])

Let’s use RCall.jl to retrieve the nycflights13 data from R.

using RCall

R"""
library(nycflights13)
"""

RObject{StrSxp}

flights = rcopy(R"flights")

336776×19 DataFrame
    Row │ year   month  day    dep_time  sched_dep_time  dep_delay  arr_time   ⋯
        │ Int64  Int64  Int64  Int64?    Int64           Float64?   Int64?     ⋯
────────┼───────────────────────────────────────────────────────────────────────
      1 │  2013      1      1       517             515        2.0       830   ⋯
      2 │  2013      1      1       533             529        4.0       850
      3 │  2013      1      1       542             540        2.0       923
      4 │  2013      1      1       544             545       -1.0      1004
      5 │  2013      1      1       554             600       -6.0       812   ⋯
      6 │  2013      1      1       554             558       -4.0       740
      7 │  2013      1      1       555             600       -5.0       913
      8 │  2013      1      1       557             600       -3.0       709
   ⋮    │   ⋮      ⋮      ⋮       ⋮            ⋮             ⋮         ⋮       ⋱
 336770 │  2013      9     30      2349            2359      -10.0       325   ⋯
 336771 │  2013      9     30   missing            1842  missing     missing
 336772 │  2013      9     30   missing            1455  missing     missing
 336773 │  2013      9     30   missing            2200  missing     missing
 336774 │  2013      9     30   missing            1210  missing     missing   ⋯
 336775 │  2013      9     30   missing            1159  missing     missing
 336776 │  2013      9     30   missing             840  missing     missing
                                              12 columns and 336761 rows omitted

To display more rows or columns:

R
Python
Julia

By default, tibble prints the first 10 rows and all columns that fit on screen.

flights

# A tibble: 336,776 × 19
    year month   day dep_time sched_de…¹ dep_d…² arr_t…³ sched…⁴ arr_d…⁵ carrier
   <int> <int> <int>    <int>      <int>   <dbl>   <int>   <int>   <dbl> <chr>  
 1  2013     1     1      517        515       2     830     819      11 UA     
 2  2013     1     1      533        529       4     850     830      20 UA     
 3  2013     1     1      542        540       2     923     850      33 AA     
 4  2013     1     1      544        545      -1    1004    1022     -18 B6     
 5  2013     1     1      554        600      -6     812     837     -25 DL     
 6  2013     1     1      554        558      -4     740     728      12 UA     
 7  2013     1     1      555        600      -5     913     854      19 B6     
 8  2013     1     1      557        600      -3     709     723     -14 EV     
 9  2013     1     1      557        600      -3     838     846      -8 B6     
10  2013     1     1      558        600      -2     753     745       8 AA     
# … with 336,766 more rows, 9 more variables: flight <int>, tailnum <chr>,
#   origin <chr>, dest <chr>, air_time <dbl>, distance <dbl>, hour <dbl>,
#   minute <dbl>, time_hour <dttm>, and abbreviated variable names
#   ¹​sched_dep_time, ²​dep_delay, ³​arr_time, ⁴​sched_arr_time, ⁵​arr_delay

To change number of rows and columns to display:

nycflights13::flights %>% 
  print(n = 10, width = Inf)

# A tibble: 336,776 × 19
    year month   day dep_time sched_dep_time dep_delay arr_time sched_arr_time
   <int> <int> <int>    <int>          <int>     <dbl>    <int>          <int>
 1  2013     1     1      517            515         2      830            819
 2  2013     1     1      533            529         4      850            830
 3  2013     1     1      542            540         2      923            850
 4  2013     1     1      544            545        -1     1004           1022
 5  2013     1     1      554            600        -6      812            837
 6  2013     1     1      554            558        -4      740            728
 7  2013     1     1      555            600        -5      913            854
 8  2013     1     1      557            600        -3      709            723
 9  2013     1     1      557            600        -3      838            846
10  2013     1     1      558            600        -2      753            745
   arr_delay carrier flight tailnum origin dest  air_time distance  hour minute
       <dbl> <chr>    <int> <chr>   <chr>  <chr>    <dbl>    <dbl> <dbl>  <dbl>
 1        11 UA        1545 N14228  EWR    IAH        227     1400     5     15
 2        20 UA        1714 N24211  LGA    IAH        227     1416     5     29
 3        33 AA        1141 N619AA  JFK    MIA        160     1089     5     40
 4       -18 B6         725 N804JB  JFK    BQN        183     1576     5     45
 5       -25 DL         461 N668DN  LGA    ATL        116      762     6      0
 6        12 UA        1696 N39463  EWR    ORD        150      719     5     58
 7        19 B6         507 N516JB  EWR    FLL        158     1065     6      0
 8       -14 EV        5708 N829AS  LGA    IAD         53      229     6      0
 9        -8 B6          79 N593JB  JFK    MCO        140      944     6      0
10         8 AA         301 N3ALAA  LGA    ORD        138      733     6      0
   time_hour          
   <dttm>             
 1 2013-01-01 05:00:00
 2 2013-01-01 05:00:00
 3 2013-01-01 05:00:00
 4 2013-01-01 05:00:00
 5 2013-01-01 06:00:00
 6 2013-01-01 05:00:00
 7 2013-01-01 06:00:00
 8 2013-01-01 06:00:00
 9 2013-01-01 06:00:00
10 2013-01-01 06:00:00
# … with 336,766 more rows
…
3 Manipulate rows (cases)

3.1 Filter rows with filter()

Flights on Jan 1st:

R
Python
Julia

# same as filter(flights, month == 1 & day == 1)
filter(flights, month == 1, day == 1)

# A tibble: 842 × 19
    year month   day dep_time sched_de…¹ dep_d…² arr_t…³ sched…⁴ arr_d…⁵ carrier
   <int> <int> <int>    <int>      <int>   <dbl>   <int>   <int>   <dbl> <chr>  
 1  2013     1     1      517        515       2     830     819      11 UA     
 2  2013     1     1      533        529       4     850     830      20 UA     
 3  2013     1     1      542        540       2     923     850      33 AA     
 4  2013     1     1      544        545      -1    1004    1022     -18 B6     
 5  2013     1     1      554        600      -6     812     837     -25 DL     
 6  2013     1     1      554        558      -4     740     728      12 UA     
 7  2013     1     1      555        600      -5     913     854      19 B6     
 8  2013     1     1      557        600      -3     709     723     -14 EV     
 9  2013     1     1      557        600      -3     838     846      -8 B6     
10  2013     1     1      558        600      -2     753     745       8 AA     
# … with 832 more rows, 9 more variables: flight <int>, tailnum <chr>,
#   origin <chr>, dest <chr>, air_time <dbl>, distance <dbl>, hour <dbl>,
#   minute <dbl>, time_hour <dttm>, and abbreviated variable names
#   ¹​sched_dep_time, ²​dep_delay, ³​arr_time, ⁴​sched_arr_time, ⁵​arr_delay
…
[842 rows x 19 columns]

filter(row -> (row.month == 1) & (row.day == 1), flights)

842×19 DataFrame
 Row │ year   month  day    dep_time  sched_dep_time  dep_delay  arr_time  sch ⋯
     │ Int64  Int64  Int64  Int64?    Int64           Float64?   Int64?    Int ⋯
─────┼──────────────────────────────────────────────────────────────────────────
   1 │  2013      1      1       517             515        2.0       830      ⋯
   2 │  2013      1      1       533             529        4.0       850
   3 │  2013      1      1       542             540        2.0       923
   4 │  2013      1      1       544             545       -1.0      1004
   5 │  2013      1      1       554             600       -6.0       812      ⋯
   6 │  2013      1      1       554             558       -4.0       740
   7 │  2013      1      1       555             600       -5.0       913
   8 │  2013      1      1       557             600       -3.0       709
  ⋮  │   ⋮      ⋮      ⋮       ⋮            ⋮             ⋮         ⋮          ⋱
 836 │  2013      1      1      2353            2359       -6.0       425      ⋯
 837 │  2013      1      1      2353            2359       -6.0       418
 838 │  2013      1      1      2356            2359       -3.0       425
 839 │  2013      1      1   missing            1630  missing     missing
 840 │  2013      1      1   missing            1935  missing     missing      ⋯
 841 │  2013      1      1   missing            1500  missing     missing
 842 │  2013      1      1   missing             600  missing     missing
                                                 12 columns and 827 rows omitted

Flights in Nov or Dec:

R
Python
Julia

filter(flights, month == 11 | month == 12)

# A tibble: 55,403 × 19
    year month   day dep_time sched_de…¹ dep_d…² arr_t…³ sched…⁴ arr_d…⁵ carrier
   <int> <int> <int>    <int>      <int>   <dbl>   <int>   <int>   <dbl> <chr>  
 1  2013    11     1        5       2359       6     352     345       7 B6     
 2  2013    11     1       35       2250     105     123    2356      87 B6     
 3  2013    11     1      455        500      -5     641     651     -10 US     
 4  2013    11     1      539        545      -6     856     827      29 UA     
 5  2013    11     1      542        545      -3     831     855     -24 AA     
 6  2013    11     1      549        600     -11     912     923     -11 UA     
 7  2013    11     1      550        600     -10     705     659       6 US     
 8  2013    11     1      554        600      -6     659     701      -2 US     
 9  2013    11     1      554        600      -6     826     827      -1 DL     
10  2013    11     1      554        600      -6     749     751      -2 DL     
# … with 55,393 more rows, 9 more variables: flight <int>, tailnum <chr>,
#   origin <chr>, dest <chr>, air_time <dbl>, distance <dbl>, hour <dbl>,
#   minute <dbl>, time_hour <dttm>, and abbreviated variable names
#   ¹​sched_dep_time, ²​dep_delay, ³​arr_time, ⁴​sched_arr_time, ⁵​arr_delay
…
[55403 rows x 19 columns]

filter(row -> (row.month == 11) | (row.month == 12), flights)

55403×19 DataFrame
   Row │ year   month  day    dep_time  sched_dep_time  dep_delay  arr_time  s ⋯
       │ Int64  Int64  Int64  Int64?    Int64           Float64?   Int64?    I ⋯
───────┼────────────────────────────────────────────────────────────────────────
     1 │  2013     11      1         5            2359        6.0       352    ⋯
     2 │  2013     11      1        35            2250      105.0       123
     3 │  2013     11      1       455             500       -5.0       641
     4 │  2013     11      1       539             545       -6.0       856
     5 │  2013     11      1       542             545       -3.0       831    ⋯
     6 │  2013     11      1       549             600      -11.0       912
     7 │  2013     11      1       550             600      -10.0       705
     8 │  2013     11      1       554             600       -6.0       659
   ⋮   │   ⋮      ⋮      ⋮       ⋮            ⋮             ⋮         ⋮        ⋱
 55397 │  2013     12     31   missing            1430  missing     missing    ⋯
 55398 │  2013     12     31   missing             855  missing     missing
 55399 │  2013     12     31   missing             705  missing     missing
 55400 │  2013     12     31   missing             825  missing     missing
 55401 │  2013     12     31   missing            1615  missing     missing    ⋯
 55402 │  2013     12     31   missing             600  missing     missing
 55403 │  2013     12     31   missing             830  missing     missing
                                               12 columns and 55388 rows omitted
…
Randomly select fraction of rows:

sample_frac(flights, 0.1, replace = TRUE)

# A tibble: 33,678 × 19
    year month   day dep_time sched_de…¹ dep_d…² arr_t…³ sched…⁴ arr_d…⁵ carrier
   <int> <int> <int>    <int>      <int>   <dbl>   <int>   <int>   <dbl> <chr>  
 1  2013     7    11     1154       1159      -5    1257    1317     -20 EV     
 2  2013     5     5     1413       1415      -2    1551    1555      -4 AA     
 3  2013     2     2     1036       1039      -3    1312    1330     -18 B6     
 4  2013     1    12     1257       1259      -2    1535    1556     -21 B6     
 5  2013    11    18      737        745      -8     840     859     -19 EV     
 6  2013    12    28      819        815       4    1134    1123      11 B6     
 7  2013     4     2     1505       1445      20    1822    1805      17 AA     
 8  2013     7    21      814        815      -1    1049    1035      14 DL     
 9  2013     6    29     2000       1853      67    2254    2223      31 UA     
10  2013    11    23     1529       1530      -1    1840    1858     -18 DL     
# … with 33,668 more rows, 9 more variables: flight <int>, tailnum <chr>,
#   origin <chr>, dest <chr>, air_time <dbl>, distance <dbl>, hour <dbl>,
#   minute <dbl>, time_hour <dttm>, and abbreviated variable names
#   ¹​sched_dep_time, ²​dep_delay, ³​arr_time, ⁴​sched_arr_time, ⁵​arr_delay
…
Sample 10% rows:

rowidx = StatsBase.sample(
  1:nrow(flights), 
  round(Int, nrow(flights) * 0.1), 
  replace = false);
flights[rowidx, :]

33678×19 DataFrame
   Row │ year   month  day    dep_time  sched_dep_time  dep_delay  arr_time  s ⋯
       │ Int64  Int64  Int64  Int64?    Int64           Float64?   Int64?    I ⋯
───────┼────────────────────────────────────────────────────────────────────────
     1 │  2013     12     21      1741            1745       -4.0      1914    ⋯
     2 │  2013     11     29       926             930       -4.0      1448
     3 │  2013      8      5       649             638       11.0       909
     4 │  2013     10     26      1101            1105       -4.0      1345
     5 │  2013      7     22       756             759       -3.0      1037    ⋯
     6 │  2013     11     22      1610            1510       60.0      1809
     7 │  2013      8     20      1413            1415       -2.0      1632
     8 │  2013      8     12      2034            2019       15.0      2320
   ⋮   │   ⋮      ⋮      ⋮       ⋮            ⋮             ⋮         ⋮        ⋱
 33672 │  2013      4      9      1923            1925       -2.0      2226    ⋯
 33673 │  2013     10     28      1829            1830       -1.0      2032
 33674 │  2013      4     26      1326            1329       -3.0      1512
 33675 │  2013      1     11      2035            2005       30.0      2205
 33676 │  2013      7     14      1019             940       39.0      1112    ⋯
 33677 │  2013     12     23      1249            1250       -1.0      1607
 33678 │  2013     10      3       922             929       -7.0      1159
                                               12 columns and 33663 rows omitted
…
3.5 Arrange rows with arrange()

Sort in ascending order:

arrange(flights, year, month, day)

# A tibble: 336,776 × 19
    year month   day dep_time sched_de…¹ dep_d…² arr_t…³ sched…⁴ arr_d…⁵ carrier
   <int> <int> <int>    <int>      <int>   <dbl>   <int>   <int>   <dbl> <chr>  
 1  2013     1     1      517        515       2     830     819      11 UA     
 2  2013     1     1      533        529       4     850     830      20 UA     
 3  2013     1     1      542        540       2     923     850      33 AA     
 4  2013     1     1      544        545      -1    1004    1022     -18 B6     
 5  2013     1     1      554        600      -6     812     837     -25 DL     
 6  2013     1     1      554        558      -4     740     728      12 UA     
 7  2013     1     1      555        600      -5     913     854      19 B6     
 8  2013     1     1      557        600      -3     709     723     -14 EV     
 9  2013     1     1      557        600      -3     838     846      -8 B6     
10  2013     1     1      558        600      -2     753     745       8 AA     
# … with 336,766 more rows, 9 more variables: flight <int>, tailnum <chr>,
#   origin <chr>, dest <chr>, air_time <dbl>, distance <dbl>, hour <dbl>,
#   minute <dbl>, time_hour <dttm>, and abbreviated variable names
#   ¹​sched_dep_time, ²​dep_delay, ³​arr_time, ⁴​sched_arr_time, ⁵​arr_delay
…
