Web Scraping
…
# Combining all the lists to form a data frame
movies <- tibble(Rank = rank_data, 
                 Title = title_data,
                 Description = description_data, 
                 Runtime = runtime_data,
                 Genre = genre_data, 
                 Rating = rating_data,
                 Metascore = metascore_data, 
                 Votes = votes_data,
                 Gross_Earning_in_Mil = gross_data,
                 Director = directors_data, 
                 Actor = actors_data)
movies %>% print(width=Inf)

# A tibble: 100 × 11
    Rank Title                
   <int> <chr>                
 1     1 Tenet                
 2     2 Possessor            
 3     3 Inheritance          
 4     4 Megan                
 5     5 365 Days             
 6     6 Wonder Woman 1984    
 7     7 Four Good Days       
 8     8 The Father           
 9     9 Enola Holmes         
10    10 Promising Young Woman
   Description                                                                  
   <chr>                                                                        
 1 Armed with only one word, Tenet, and fighting for the survival of the entire…
 2 An agent works for a secretive organization that uses brain-implant technolo…
 3 The patriarch of a wealthy and powerful family suddenly passes away, leaving…
 4 A hiker finds shelter in a mountain lodge inhabited by two strange women.    
 5 Massimo is a member of the Sicilian Mafia family and Laura is a sales direct…
 6 Diana must contend with a work colleague, and with a businessman whose desir…
 7 A mother helps her daughter work through four crucial days of recovery from …
 8 A man refuses all assistance from his daughter as he ages. As he tries to ma…
 9 When Enola Holmes (Sherlock's teen sister) discovers her mother is missing, …
10 A young woman, traumatized by a tragic event in her past, seeks out vengeanc…
   Runtime Genre    Rating Metascore  Votes Gross_Earning_in_Mil
     <int> <chr>     <dbl>     <int>  <dbl>                <dbl>
 1     150 Action      7.3        69 515425                 58.5
 2     103 Horror      6.5        72  38484                 NA  
 3     111 Drama       5.5        31  16669                 NA  
 4      89 Thriller    4          NA    270                 NA  
 5     114 Drama       3.3        NA  91521                 NA  
 6     151 Action      5.4        60 272130                 46.4
 7     100 Drama       6.5        52   8216                 NA  
 8      97 Drama       8.2        88 159222                 NA  
 9     123 Action      6.6        68 197888                 NA  
10     113 Crime       7.5        73 178164                 NA  
   Director           Actor                
   <chr>              <chr>                
 1 Christopher Nolan  John David Washington
 2 Brandon Cronenberg Andrea Riseborough   
 3 Vaughn Stein       Lily Collins         
 4 Silvio Nacucchi    Sadie Katz           
 5 Barbara Bialowas   Anna-Maria Sieklucka 
 6 Patty Jenkins      Gal Gadot            
 7 Rodrigo García     Mila Kunis           
 8 Florian Zeller     Anthony Hopkins      
 9 Harry Bradbeer     Millie Bobby Brown   
10 Emerald Fennell    Carey Mulligan       
# … with 90 more rows
…
