Machine Learning Workflow: Random Forest for Classification (Heart Data)
…
# Load the `Heart.csv` data.
Heart <- read_csv("Heart.csv") %>% 
  # first column is patient ID, which we don't need
  select(-1) %>%
  # RestECG is categorical with value 0, 1, 2, 3
  mutate(RestECG = as.factor(RestECG)) %>%
  print(width = Inf)

# A tibble: 303 × 14
     Age   Sex ChestPain    RestBP  Chol   Fbs RestECG MaxHR ExAng Oldpeak Slope
   <dbl> <dbl> <chr>         <dbl> <dbl> <dbl> <fct>   <dbl> <dbl>   <dbl> <dbl>
 1    63     1 typical         145   233     1 2         150     0     2.3     3
 2    67     1 asymptomatic    160   286     0 2         108     1     1.5     2
 3    67     1 asymptomatic    120   229     0 2         129     1     2.6     2
 4    37     1 nonanginal      130   250     0 0         187     0     3.5     3
 5    41     0 nontypical      130   204     0 2         172     0     1.4     1
 6    56     1 nontypical      120   236     0 0         178     0     0.8     1
 7    62     0 asymptomatic    140   268     0 2         160     0     3.6     3
 8    57     0 asymptomatic    120   354     0 0         163     1     0.6     1
 9    63     1 asymptomatic    130   254     0 2         147     0     1.4     2
10    53     1 asymptomatic    140   203     1 2         155     1     3.1     3
      Ca Thal       AHD  
   <dbl> <chr>      <chr>
 1     0 fixed      No   
 2     3 normal     Yes  
 3     2 reversable Yes  
 4     0 normal     No   
 5     0 normal     No   
 6     0 normal     No   
 7     2 normal     Yes  
 8     0 normal     No   
 9     1 reversable Yes  
10     0 reversable Yes  
# … with 293 more rows
…
Visualize CV results:

rf_fit %>%
  collect_metrics() %>%
  print(width = Inf) %>%
  filter(.metric == "roc_auc") %>%
  ggplot(mapping = aes(x = trees, y = mean, color = mtry)) +
  geom_point() + 
  # geom_line() + 
  labs(x = "Num. of Trees", y = "CV AUC")

# A tibble: 30 × 8
    mtry trees .metric  .estimator  mean     n std_err .config              
   <int> <int> <chr>    <chr>      <dbl> <int>   <dbl> <chr>                
 1     1   100 accuracy binary     0.859     5  0.0262 Preprocessor1_Model01
 2     1   100 roc_auc  binary     0.934     5  0.0197 Preprocessor1_Model01
 3     1   200 accuracy binary     0.854     5  0.0153 Preprocessor1_Model02
 4     1   200 roc_auc  binary     0.939     5  0.0187 Preprocessor1_Model02
 5     1   300 accuracy binary     0.846     5  0.0140 Preprocessor1_Model03
 6     1   300 roc_auc  binary     0.938     5  0.0204 Preprocessor1_Model03
 7     2   100 accuracy binary     0.855     5  0.0177 Preprocessor1_Model04
 8     2   100 roc_auc  binary     0.932     5  0.0218 Preprocessor1_Model04
 9     2   200 accuracy binary     0.850     5  0.0215 Preprocessor1_Model05
10     2   200 roc_auc  binary     0.932     5  0.0200 Preprocessor1_Model05
# … with 20 more rows
…
