Dates and Times | r4ds Chapter 16
…
1 Basics

Three types of data/time data:

date. Tibbles print it as <date>.

time. Tibbles print it as <time>.

date-time. Tibbles print it as <dttm>.

In the flights tibble, the last variable time_hour is in the data-time format:

flights %>% print(width = Inf)

# A tibble: 336,776 × 19
    year month   day dep_time sched_dep_time dep_delay arr_time sched_arr_time
   <int> <int> <int>    <int>          <int>     <dbl>    <int>          <int>
 1  2013     1     1      517            515         2      830            819
 2  2013     1     1      533            529         4      850            830
 3  2013     1     1      542            540         2      923            850
 4  2013     1     1      544            545        -1     1004           1022
 5  2013     1     1      554            600        -6      812            837
 6  2013     1     1      554            558        -4      740            728
 7  2013     1     1      555            600        -5      913            854
 8  2013     1     1      557            600        -3      709            723
 9  2013     1     1      557            600        -3      838            846
10  2013     1     1      558            600        -2      753            745
   arr_delay carrier flight tailnum origin dest  air_time distance  hour minute
       <dbl> <chr>    <int> <chr>   <chr>  <chr>    <dbl>    <dbl> <dbl>  <dbl>
 1        11 UA        1545 N14228  EWR    IAH        227     1400     5     15
 2        20 UA        1714 N24211  LGA    IAH        227     1416     5     29
 3        33 AA        1141 N619AA  JFK    MIA        160     1089     5     40
 4       -18 B6         725 N804JB  JFK    BQN        183     1576     5     45
 5       -25 DL         461 N668DN  LGA    ATL        116      762     6      0
 6        12 UA        1696 N39463  EWR    ORD        150      719     5     58
 7        19 B6         507 N516JB  EWR    FLL        158     1065     6      0
 8       -14 EV        5708 N829AS  LGA    IAD         53      229     6      0
 9        -8 B6          79 N593JB  JFK    MCO        140      944     6      0
10         8 AA         301 N3ALAA  LGA    ORD        138      733     6      0
   time_hour          
   <dttm>             
 1 2013-01-01 05:00:00
 2 2013-01-01 05:00:00
 3 2013-01-01 05:00:00
 4 2013-01-01 05:00:00
 5 2013-01-01 06:00:00
 6 2013-01-01 05:00:00
 7 2013-01-01 06:00:00
 8 2013-01-01 06:00:00
 9 2013-01-01 06:00:00
10 2013-01-01 06:00:00
# … with 336,766 more rows
…
[1] "2020-01-30 14:57:00 UTC"

2.2 From unquoated numbers

ymd(20200130)

[1] "2020-01-30"

2.3 From variables/columns in a tibble

flights %>% 
  select(year, month, day, hour, minute) %>%
  mutate(departure = make_datetime(year, month, day, hour, minute))

# A tibble: 336,776 × 6
    year month   day  hour minute departure          
   <int> <int> <int> <dbl>  <dbl> <dttm>             
 1  2013     1     1     5     15 2013-01-01 05:15:00
 2  2013     1     1     5     29 2013-01-01 05:29:00
 3  2013     1     1     5     40 2013-01-01 05:40:00
 4  2013     1     1     5     45 2013-01-01 05:45:00
 5  2013     1     1     6      0 2013-01-01 06:00:00
 6  2013     1     1     5     58 2013-01-01 05:58:00
 7  2013     1     1     6      0 2013-01-01 06:00:00
 8  2013     1     1     6      0 2013-01-01 06:00:00
 9  2013     1     1     6      0 2013-01-01 06:00:00
10  2013     1     1     6      0 2013-01-01 06:00:00
# … with 336,766 more rows
…
flights_dt <- flights %>% 
  filter(!is.na(dep_time), !is.na(arr_time)) %>% 
  mutate(
    dep_time = make_datetime_100(year, month, day, dep_time),
    arr_time = make_datetime_100(year, month, day, arr_time),
    sched_dep_time = make_datetime_100(year, month, day, sched_dep_time),
    sched_arr_time = make_datetime_100(year, month, day, sched_arr_time)
  ) %>% 
  select(origin, dest, ends_with("delay"), ends_with("time")) %>%
  print(width = Inf)

# A tibble: 328,063 × 9
   origin dest  dep_delay arr_delay dep_time            sched_dep_time     
   <chr>  <chr>     <dbl>     <dbl> <dttm>              <dttm>             
 1 EWR    IAH           2        11 2013-01-01 05:17:00 2013-01-01 05:15:00
 2 LGA    IAH           4        20 2013-01-01 05:33:00 2013-01-01 05:29:00
 3 JFK    MIA           2        33 2013-01-01 05:42:00 2013-01-01 05:40:00
 4 JFK    BQN          -1       -18 2013-01-01 05:44:00 2013-01-01 05:45:00
 5 LGA    ATL          -6       -25 2013-01-01 05:54:00 2013-01-01 06:00:00
 6 EWR    ORD          -4        12 2013-01-01 05:54:00 2013-01-01 05:58:00
 7 EWR    FLL          -5        19 2013-01-01 05:55:00 2013-01-01 06:00:00
 8 LGA    IAD          -3       -14 2013-01-01 05:57:00 2013-01-01 06:00:00
 9 JFK    MCO          -3        -8 2013-01-01 05:57:00 2013-01-01 06:00:00
10 LGA    ORD          -2         8 2013-01-01 05:58:00 2013-01-01 06:00:00
   arr_time            sched_arr_time      air_time
   <dttm>              <dttm>                 <dbl>
 1 2013-01-01 08:30:00 2013-01-01 08:19:00      227
 2 2013-01-01 08:50:00 2013-01-01 08:30:00      227
 3 2013-01-01 09:23:00 2013-01-01 08:50:00      160
 4 2013-01-01 10:04:00 2013-01-01 10:22:00      183
 5 2013-01-01 08:12:00 2013-01-01 08:37:00      116
 6 2013-01-01 07:40:00 2013-01-01 07:28:00      150
 7 2013-01-01 09:13:00 2013-01-01 08:54:00      158
 8 2013-01-01 07:09:00 2013-01-01 07:23:00       53
 9 2013-01-01 08:38:00 2013-01-01 08:46:00      140
10 2013-01-01 07:53:00 2013-01-01 07:45:00      138
# … with 328,053 more rows
…
weeks(3)

[1] "21d 0H 0M 0S"

years(1)

[1] "1y 0m 0d 0H 0M 0S"

Some planes appear to have arrived at their destination before they departed from New York City.

flights_dt %>% 
  filter(arr_time < dep_time) %>%
  print(width = Inf)

# A tibble: 10,640 × 9
   origin dest  dep_delay arr_delay dep_time            sched_dep_time     
   <chr>  <chr>     <dbl>     <dbl> <dttm>              <dttm>             
 1 EWR    BQN           9        -4 2013-01-01 19:29:00 2013-01-01 19:20:00
 2 JFK    DFW          59        NA 2013-01-01 19:39:00 2013-01-01 18:40:00
 3 EWR    TPA          -2         9 2013-01-01 20:58:00 2013-01-01 21:00:00
 4 EWR    SJU          -6       -12 2013-01-01 21:02:00 2013-01-01 21:08:00
 5 EWR    SFO          11       -14 2013-01-01 21:08:00 2013-01-01 20:57:00
 6 LGA    FLL         -10        -2 2013-01-01 21:20:00 2013-01-01 21:30:00
 7 EWR    MCO          41        43 2013-01-01 21:21:00 2013-01-01 20:40:00
 8 JFK    LAX          -7       -24 2013-01-01 21:28:00 2013-01-01 21:35:00
 9 EWR    FLL          49        28 2013-01-01 21:34:00 2013-01-01 20:45:00
10 EWR    FLL          -9       -14 2013-01-01 21:36:00 2013-01-01 21:45:00
   arr_time            sched_arr_time      air_time
   <dttm>              <dttm>                 <dbl>
 1 2013-01-01 00:03:00 2013-01-01 00:07:00      192
 2 2013-01-01 00:29:00 2013-01-01 21:51:00       NA
 3 2013-01-01 00:08:00 2013-01-01 23:59:00      159
 4 2013-01-01 01:46:00 2013-01-01 01:58:00      199
 5 2013-01-01 00:25:00 2013-01-01 00:39:00      354
 6 2013-01-01 00:16:00 2013-01-01 00:18:00      160
 7 2013-01-01 00:06:00 2013-01-01 23:23:00      143
 8 2013-01-01 00:26:00 2013-01-01 00:50:00      338
 9 2013-01-01 00:20:00 2013-01-01 23:52:00      152
10 2013-01-01 00:25:00 2013-01-01 00:39:00      154
# … with 10,630 more rows
…
