Import and Tidy Data
…
Convert a regular data frame to tibble, which by default only displays the first 10 rows of data.

as_tibble(iris)

# A tibble: 150 × 5
   Sepal.Length Sepal.Width Petal.Length Petal.Width Species
          <dbl>       <dbl>        <dbl>       <dbl> <fct>  
 1          5.1         3.5          1.4         0.2 setosa 
 2          4.9         3            1.4         0.2 setosa 
 3          4.7         3.2          1.3         0.2 setosa 
 4          4.6         3.1          1.5         0.2 setosa 
 5          5           3.6          1.4         0.2 setosa 
 6          5.4         3.9          1.7         0.4 setosa 
 7          4.6         3.4          1.4         0.3 setosa 
 8          5           3.4          1.5         0.2 setosa 
 9          4.4         2.9          1.4         0.2 setosa 
10          4.9         3.1          1.5         0.1 setosa 
# … with 140 more rows
…
If you want to add rows at the beginning of a data frame use pushfirst! and to insert a row in an arbitrary location use insert!.

You can also add whole tables to a data frame using the append! and prepend! functions.

3.3 Printing of a tibble

R
Python
Julia

By default, tibble prints the first 10 rows and all columns that fit on screen.

nycflights13::flights

# A tibble: 336,776 × 19
    year month   day dep_time sched_de…¹ dep_d…² arr_t…³ sched…⁴ arr_d…⁵ carrier
   <int> <int> <int>    <int>      <int>   <dbl>   <int>   <int>   <dbl> <chr>  
 1  2013     1     1      517        515       2     830     819      11 UA     
 2  2013     1     1      533        529       4     850     830      20 UA     
 3  2013     1     1      542        540       2     923     850      33 AA     
 4  2013     1     1      544        545      -1    1004    1022     -18 B6     
 5  2013     1     1      554        600      -6     812     837     -25 DL     
 6  2013     1     1      554        558      -4     740     728      12 UA     
 7  2013     1     1      555        600      -5     913     854      19 B6     
 8  2013     1     1      557        600      -3     709     723     -14 EV     
 9  2013     1     1      557        600      -3     838     846      -8 B6     
10  2013     1     1      558        600      -2     753     745       8 AA     
# … with 336,766 more rows, 9 more variables: flight <int>, tailnum <chr>,
#   origin <chr>, dest <chr>, air_time <dbl>, distance <dbl>, hour <dbl>,
#   minute <dbl>, time_hour <dttm>, and abbreviated variable names
#   ¹​sched_dep_time, ²​dep_delay, ³​arr_time, ⁴​sched_arr_time, ⁵​arr_delay

To change number of rows and columns to display:

nycflights13::flights %>% 
  print(n = 10, width = Inf)

# A tibble: 336,776 × 19
    year month   day dep_time sched_dep_time dep_delay arr_time sched_arr_time
   <int> <int> <int>    <int>          <int>     <dbl>    <int>          <int>
 1  2013     1     1      517            515         2      830            819
 2  2013     1     1      533            529         4      850            830
 3  2013     1     1      542            540         2      923            850
 4  2013     1     1      544            545        -1     1004           1022
 5  2013     1     1      554            600        -6      812            837
 6  2013     1     1      554            558        -4      740            728
 7  2013     1     1      555            600        -5      913            854
 8  2013     1     1      557            600        -3      709            723
 9  2013     1     1      557            600        -3      838            846
10  2013     1     1      558            600        -2      753            745
   arr_delay carrier flight tailnum origin dest  air_time distance  hour minute
       <dbl> <chr>    <int> <chr>   <chr>  <chr>    <dbl>    <dbl> <dbl>  <dbl>
 1        11 UA        1545 N14228  EWR    IAH        227     1400     5     15
 2        20 UA        1714 N24211  LGA    IAH        227     1416     5     29
 3        33 AA        1141 N619AA  JFK    MIA        160     1089     5     40
 4       -18 B6         725 N804JB  JFK    BQN        183     1576     5     45
 5       -25 DL         461 N668DN  LGA    ATL        116      762     6      0
 6        12 UA        1696 N39463  EWR    ORD        150      719     5     58
 7        19 B6         507 N516JB  EWR    FLL        158     1065     6      0
 8       -14 EV        5708 N829AS  LGA    IAD         53      229     6      0
 9        -8 B6          79 N593JB  JFK    MCO        140      944     6      0
10         8 AA         301 N3ALAA  LGA    ORD        138      733     6      0
   time_hour          
   <dttm>             
 1 2013-01-01 05:00:00
 2 2013-01-01 05:00:00
 3 2013-01-01 05:00:00
 4 2013-01-01 05:00:00
 5 2013-01-01 06:00:00
 6 2013-01-01 05:00:00
 7 2013-01-01 06:00:00
 8 2013-01-01 06:00:00
 9 2013-01-01 06:00:00
10 2013-01-01 06:00:00
# … with 336,766 more rows
…
Read from a local file heights.csv:

heights <- read_csv("heights.csv") %>% print(width = Inf)

Rows: 1192 Columns: 6
── Column specification ────────────────────────────────────────────────────────
Delimiter: ","
chr (2): sex, race
dbl (4): earn, height, ed, age

ℹ Use `spec()` to retrieve the full column specification for this data.
ℹ Specify the column types or set `show_col_types = FALSE` to quiet this message.

# A tibble: 1,192 × 6
    earn height sex       ed   age race    
   <dbl>  <dbl> <chr>  <dbl> <dbl> <chr>   
 1 50000   74.4 male      16    45 white   
 2 60000   65.5 female    16    58 white   
 3 30000   63.6 female    16    29 white   
 4 50000   63.1 female    16    91 other   
 5 51000   63.4 female    17    39 white   
 6  9000   64.4 female    15    26 white   
 7 29000   61.7 female    12    49 white   
 8 32000   72.7 male      17    46 white   
 9  2000   72.0 male      15    21 hispanic
10 27000   72.2 male      12    26 white   
# … with 1,182 more rows
Read from a url:

heights <- read_csv("https://raw.githubusercontent.com/ucla-biostat-203b/2023winter/master/slides/05-tidy/heights.csv") %>%
  print(width = Inf)

Rows: 1192 Columns: 6
── Column specification ────────────────────────────────────────────────────────
Delimiter: ","
chr (2): sex, race
dbl (4): earn, height, ed, age

ℹ Use `spec()` to retrieve the full column specification for this data.
ℹ Specify the column types or set `show_col_types = FALSE` to quiet this message.

# A tibble: 1,192 × 6
    earn height sex       ed   age race    
   <dbl>  <dbl> <chr>  <dbl> <dbl> <chr>   
 1 50000   74.4 male      16    45 white   
 2 60000   65.5 female    16    58 white   
 3 30000   63.6 female    16    29 white   
 4 50000   63.1 female    16    91 other   
 5 51000   63.4 female    17    39 white   
 6  9000   64.4 female    15    26 white   
 7 29000   61.7 female    12    49 white   
 8 32000   72.7 male      17    46 white   
 9  2000   72.0 male      15    21 hispanic
10 27000   72.2 male      12    26 white   
# … with 1,182 more rows
…
   a  b   c
0  1  2 NaN

Read from a local file heights.csv:

using CSV

# Make a copy
heights = CSV.File("heights.csv") |> DataFrame

1192×6 DataFrame
  Row │ earn      height   sex      ed     age    race
      │ Float64   Float64  String7  Int64  Int64  String15
──────┼────────────────────────────────────────────────────
    1 │  50000.0  74.4244  male        16     45  white
    2 │  60000.0  65.5375  female      16     58  white
    3 │  30000.0  63.6292  female      16     29  white
    4 │  50000.0  63.1086  female      16     91  other
    5 │  51000.0  63.4025  female      17     39  white
    6 │   9000.0  64.3995  female      15     26  white
    7 │  29000.0  61.6563  female      12     49  white
    8 │  32000.0  72.6985  male        17     46  white
  ⋮   │    ⋮         ⋮        ⋮       ⋮      ⋮       ⋮
 1186 │  58000.0  70.3434  male        18     53  white
 1187 │  10000.0  70.0563  female      16     36  white
 1188 │  19000.0  72.1657  male        12     29  white
 1189 │  15000.0  61.1358  female      18     82  white
 1190 │   8000.0  63.6642  female      12     33  white
 1191 │  60000.0  71.9258  male        12     50  white
 1192 │   6000.0  68.3685  male        12     27  white
                                          1177 rows omitted

# Not make a copy (DataFrame takes direct ownership of CSV.File's columns)
heights = CSV.read("heights.csv", DataFrame)

1192×6 DataFrame
  Row │ earn      height   sex      ed     age    race
      │ Float64   Float64  String7  Int64  Int64  String15
──────┼────────────────────────────────────────────────────
    1 │  50000.0  74.4244  male        16     45  white
    2 │  60000.0  65.5375  female      16     58  white
    3 │  30000.0  63.6292  female      16     29  white
    4 │  50000.0  63.1086  female      16     91  other
    5 │  51000.0  63.4025  female      17     39  white
    6 │   9000.0  64.3995  female      15     26  white
    7 │  29000.0  61.6563  female      12     49  white
    8 │  32000.0  72.6985  male        17     46  white
  ⋮   │    ⋮         ⋮        ⋮       ⋮      ⋮       ⋮
 1186 │  58000.0  70.3434  male        18     53  white
 1187 │  10000.0  70.0563  female      16     36  white
 1188 │  19000.0  72.1657  male        12     29  white
 1189 │  15000.0  61.1358  female      18     82  white
 1190 │   8000.0  63.6642  female      12     33  white
 1191 │  60000.0  71.9258  male        12     50  white
 1192 │   6000.0  68.3685  male        12     27  white
                                          1177 rows omitted

Read from a url:

using HTTP

http_response = HTTP.get("https://raw.githubusercontent.com/ucla-biostat-203b/2023winter/master/slides/05-tidy/heights.csv");
heights = CSV.File(http_response.body) |> DataFrame

1192×6 DataFrame
  Row │ earn      height   sex      ed     age    race
      │ Float64   Float64  String7  Int64  Int64  String15
──────┼────────────────────────────────────────────────────
    1 │  50000.0  74.4244  male        16     45  white
    2 │  60000.0  65.5375  female      16     58  white
    3 │  30000.0  63.6292  female      16     29  white
    4 │  50000.0  63.1086  female      16     91  other
    5 │  51000.0  63.4025  female      17     39  white
    6 │   9000.0  64.3995  female      15     26  white
    7 │  29000.0  61.6563  female      12     49  white
    8 │  32000.0  72.6985  male        17     46  white
  ⋮   │    ⋮         ⋮        ⋮       ⋮      ⋮       ⋮
 1186 │  58000.0  70.3434  male        18     53  white
 1187 │  10000.0  70.0563  female      16     36  white
 1188 │  19000.0  72.1657  male        12     29  white
 1189 │  15000.0  61.1358  female      18     82  white
 1190 │   8000.0  63.6642  female      12     33  white
 1191 │  60000.0  71.9258  male        12     50  white
 1192 │   6000.0  68.3685  male        12     27  white
                                          1177 rows omitted
…
R
Python
Julia

readxl package (part of tidyverse) reads both xls and xlsx files:

library(readxl)
# xls file
read_excel("datasets.xls")

# A tibble: 150 × 5
   Sepal.Length Sepal.Width Petal.Length Petal.Width Species
          <dbl>       <dbl>        <dbl>       <dbl> <chr>  
 1          5.1         3.5          1.4         0.2 setosa 
 2          4.9         3            1.4         0.2 setosa 
 3          4.7         3.2          1.3         0.2 setosa 
 4          4.6         3.1          1.5         0.2 setosa 
 5          5           3.6          1.4         0.2 setosa 
 6          5.4         3.9          1.7         0.4 setosa 
 7          4.6         3.4          1.4         0.3 setosa 
 8          5           3.4          1.5         0.2 setosa 
 9          4.4         2.9          1.4         0.2 setosa 
10          4.9         3.1          1.5         0.1 setosa 
# … with 140 more rows

# xlsx file
read_excel("datasets.xlsx")

# A tibble: 150 × 5
   Sepal.Length Sepal.Width Petal.Length Petal.Width Species
          <dbl>       <dbl>        <dbl>       <dbl> <chr>  
 1          5.1         3.5          1.4         0.2 setosa 
 2          4.9         3            1.4         0.2 setosa 
 3          4.7         3.2          1.3         0.2 setosa 
 4          4.6         3.1          1.5         0.2 setosa 
 5          5           3.6          1.4         0.2 setosa 
 6          5.4         3.9          1.7         0.4 setosa 
 7          4.6         3.4          1.4         0.3 setosa 
 8          5           3.4          1.5         0.2 setosa 
 9          4.4         2.9          1.4         0.2 setosa 
10          4.9         3.1          1.5         0.1 setosa 
# … with 140 more rows

List the sheet name:

excel_sheets("datasets.xlsx")

[1] "iris"     "mtcars"   "chickwts" "quakes"  

Read in a specific sheet by name or number:

read_excel("datasets.xlsx", sheet = "mtcars")

# A tibble: 32 × 11
     mpg   cyl  disp    hp  drat    wt  qsec    vs    am  gear  carb
   <dbl> <dbl> <dbl> <dbl> <dbl> <dbl> <dbl> <dbl> <dbl> <dbl> <dbl>
 1  21       6  160    110  3.9   2.62  16.5     0     1     4     4
 2  21       6  160    110  3.9   2.88  17.0     0     1     4     4
 3  22.8     4  108     93  3.85  2.32  18.6     1     1     4     1
 4  21.4     6  258    110  3.08  3.22  19.4     1     0     3     1
 5  18.7     8  360    175  3.15  3.44  17.0     0     0     3     2
 6  18.1     6  225    105  2.76  3.46  20.2     1     0     3     1
 7  14.3     8  360    245  3.21  3.57  15.8     0     0     3     4
 8  24.4     4  147.    62  3.69  3.19  20       1     0     4     2
 9  22.8     4  141.    95  3.92  3.15  22.9     1     0     4     2
10  19.2     6  168.   123  3.92  3.44  18.3     1     0     4     4
# … with 22 more rows

read_excel("datasets.xlsx", sheet = 4)

# A tibble: 1,000 × 5
     lat  long depth   mag stations
   <dbl> <dbl> <dbl> <dbl>    <dbl>
 1 -20.4  182.   562   4.8       41
 2 -20.6  181.   650   4.2       15
 3 -26    184.    42   5.4       43
 4 -18.0  182.   626   4.1       19
 5 -20.4  182.   649   4         11
 6 -19.7  184.   195   4         12
 7 -11.7  166.    82   4.8       43
 8 -28.1  182.   194   4.4       15
 9 -28.7  182.   211   4.7       35
10 -17.5  180.   622   4.3       19
# … with 990 more rows
…
# first 4 rows
read_excel("datasets.xlsx", range = cell_rows(1:4))

# A tibble: 3 × 5
  Sepal.Length Sepal.Width Petal.Length Petal.Width Species
         <dbl>       <dbl>        <dbl>       <dbl> <chr>  
1          5.1         3.5          1.4         0.2 setosa 
2          4.9         3            1.4         0.2 setosa 
3          4.7         3.2          1.3         0.2 setosa 

# columns B-D
read_excel("datasets.xlsx", range = cell_cols("B:D"))

# A tibble: 150 × 3
   Sepal.Width Petal.Length Petal.Width
         <dbl>        <dbl>       <dbl>
 1         3.5          1.4         0.2
 2         3            1.4         0.2
 3         3.2          1.3         0.2
 4         3.1          1.5         0.2
 5         3.6          1.4         0.2
 6         3.9          1.7         0.4
 7         3.4          1.4         0.3
 8         3.4          1.5         0.2
 9         2.9          1.4         0.2
10         3.1          1.5         0.1
# … with 140 more rows
…
# A tibble: 4 × 3
    cyl  disp    hp
  <dbl> <dbl> <dbl>
1     6   160   110
2     6   160   110
3     4   108    93
4     6   258   110

Specify NAs:

read_excel("datasets.xlsx", na = "setosa")

# A tibble: 150 × 5
   Sepal.Length Sepal.Width Petal.Length Petal.Width Species
          <dbl>       <dbl>        <dbl>       <dbl> <chr>  
 1          5.1         3.5          1.4         0.2 <NA>   
 2          4.9         3            1.4         0.2 <NA>   
 3          4.7         3.2          1.3         0.2 <NA>   
 4          4.6         3.1          1.5         0.2 <NA>   
 5          5           3.6          1.4         0.2 <NA>   
 6          5.4         3.9          1.7         0.4 <NA>   
 7          4.6         3.4          1.4         0.3 <NA>   
 8          5           3.4          1.5         0.2 <NA>   
 9          4.4         2.9          1.4         0.2 <NA>   
10          4.9         3.1          1.5         0.1 <NA>   
# … with 140 more rows
…
Writing Excel files:

challenge.to_excel("challenge.xls")

XLSX.jl package handles the excel sheets in Julia.

Read a xlsx file:

using XLSX

# Read directly
XLSX.readtable("datasets.xlsx", "iris") |> DataFrame

150×5 DataFrame
 Row │ Sepal.Length  Sepal.Width  Petal.Length  Petal.Width  Species
     │ Any           Any          Any           Any          Any
─────┼─────────────────────────────────────────────────────────────────
   1 │ 5.1           3.5          1.4           0.2          setosa
   2 │ 4.9           3            1.4           0.2          setosa
   3 │ 4.7           3.2          1.3           0.2          setosa
   4 │ 4.6           3.1          1.5           0.2          setosa
   5 │ 5             3.6          1.4           0.2          setosa
   6 │ 5.4           3.9          1.7           0.4          setosa
   7 │ 4.6           3.4          1.4           0.3          setosa
   8 │ 5             3.4          1.5           0.2          setosa
  ⋮  │      ⋮             ⋮            ⋮             ⋮           ⋮
 144 │ 6.8           3.2          5.9           2.3          virginica
 145 │ 6.7           3.3          5.7           2.5          virginica
 146 │ 6.7           3            5.2           2.3          virginica
 147 │ 6.3           2.5          5             1.9          virginica
 148 │ 6.5           3            5.2           2            virginica
 149 │ 6.2           3.4          5.4           2.3          virginica
 150 │ 5.9           3            5.1           1.8          virginica
                                                       135 rows omitted
…
xf = XLSX.readxlsx("datasets.xlsx");
XLSX.sheetnames(xf)

4-element Vector{String}:
 "iris"
 "mtcars"
 "chickwts"
 "quakes"

Read in a specific sheet by name:

# Read directly
XLSX.readtable("datasets.xlsx", "mtcars") |> DataFrame

32×11 DataFrame
 Row │ mpg   cyl  disp   hp   drat  wt     qsec   vs   am   gear  carb
     │ Any   Any  Any    Any  Any   Any    Any    Any  Any  Any   Any
─────┼─────────────────────────────────────────────────────────────────
   1 │ 21    6    160    110  3.9   2.62   16.46  0    1    4     4
   2 │ 21    6    160    110  3.9   2.875  17.02  0    1    4     4
   3 │ 22.8  4    108    93   3.85  2.32   18.61  1    1    4     1
   4 │ 21.4  6    258    110  3.08  3.215  19.44  1    0    3     1
   5 │ 18.7  8    360    175  3.15  3.44   17.02  0    0    3     2
   6 │ 18.1  6    225    105  2.76  3.46   20.22  1    0    3     1
   7 │ 14.3  8    360    245  3.21  3.57   15.84  0    0    3     4
   8 │ 24.4  4    146.7  62   3.69  3.19   20     1    0    4     2
  ⋮  │  ⋮     ⋮     ⋮     ⋮    ⋮      ⋮      ⋮     ⋮    ⋮    ⋮     ⋮
  26 │ 27.3  4    79     66   4.08  1.935  18.9   1    1    4     1
  27 │ 26    4    120.3  91   4.43  2.14   16.7   0    1    5     2
  28 │ 30.4  4    95.1   113  3.77  1.513  16.9   1    1    5     2
  29 │ 15.8  8    351    264  4.22  3.17   14.5   0    1    5     4
  30 │ 19.7  6    145    175  3.62  2.77   15.5   0    1    5     6
  31 │ 15    8    301    335  3.54  3.57   14.6   0    1    5     8
  32 │ 21.4  4    121    109  4.11  2.78   18.6   1    1    4     2
                                                        17 rows omitted
…
